[
    {
        "characters": "一",
        "pinyin": "yī",
        "translation": "one/1"
    },
    {
        "characters": "一共",
        "pinyin": "yígòng",
        "translation": "altogether/together"
    },
    {
        "characters": "一定",
        "pinyin": "yídìng",
        "translation": "certainly/definitely"
    },
    {
        "characters": "一点儿",
        "pinyin": "yìdiănr",
        "translation": "a little/little/some"
    },
    {
        "characters": "一直",
        "pinyin": "yìzhí",
        "translation": "straight/all along/all this time"
    },
    {
        "characters": "一般",
        "pinyin": "yìbān",
        "translation": "ordinary/normal/normally/average/usually"
    },
    {
        "characters": "一起",
        "pinyin": "yìqĭ",
        "translation": "together"
    },
    {
        "characters": "一边",
        "pinyin": "yìbiān",
        "translation": "while/one side"
    },
    {
        "characters": "七",
        "pinyin": "qī",
        "translation": "7/seven"
    },
    {
        "characters": "万",
        "pinyin": "wàn",
        "translation": "ten thousand/10,000/10000/10k"
    },
    {
        "characters": "丈夫",
        "pinyin": "zhàngfu",
        "translation": "husband"
    },
    {
        "characters": "三",
        "pinyin": "sān",
        "translation": "three/3"
    },
    {
        "characters": "上",
        "pinyin": "shàng",
        "translation": "above/up"
    },
    {
        "characters": "上午",
        "pinyin": "shàngwŭ",
        "translation": "morning/before noon"
    },
    {
        "characters": "上海",
        "pinyin": "Shànghăi",
        "translation": "Shanghai"
    },
    {
        "characters": "上班",
        "pinyin": "shàngbān",
        "translation": "go to work/start to work/to work"
    },
    {
        "characters": "上网",
        "pinyin": "shàngwăng",
        "translation": "go online/surf the internet"
    },
    {
        "characters": "上课",
        "pinyin": "shàngkè",
        "translation": "to have class/have class/to go to class/go to class/attend class"
    },
    {
        "characters": "下",
        "pinyin": "xià",
        "translation": "below/down"
    },
    {
        "characters": "下午",
        "pinyin": "xiàwŭ",
        "translation": "afternoon"
    },
    {
        "characters": "下雨",
        "pinyin": "xiàyŭ",
        "translation": "rain"
    },
    {
        "characters": "不",
        "pinyin": "bù",
        "translation": "not/no"
    },
    {
        "characters": "不客气",
        "pinyin": "bú kèqi",
        "translation": "not at all"
    },
    {
        "characters": "不 客气",
        "pinyin": "bú kèqi",
        "translation": "you're welcome/you are welcome"
    },
    {
        "characters": "不过",
        "pinyin": "búguò",
        "translation": "but"
    },
    {
        "characters": "不错",
        "pinyin": "búcuò",
        "translation": "not bad/not too bad"
    },
    {
        "characters": "世界",
        "pinyin": "shìjiè",
        "translation": "world/earth"
    },
    {
        "characters": "世界杯",
        "pinyin": "Shìjiè Bēi",
        "translation": "World Cup"
    },
    {
        "characters": "两",
        "pinyin": "liăng",
        "translation": "two/2"
    },
    {
        "characters": "个",
        "pinyin": "gè",
        "translation": "measure word for nouns/measure word for a noun"
    },
    {
        "characters": "个子",
        "pinyin": "gèzi",
        "translation": "height"
    },
    {
        "characters": "中午",
        "pinyin": "zhōng wŭ",
        "translation": "noon"
    },
    {
        "characters": "中国",
        "pinyin": "Zhōngguó",
        "translation": "China"
    },
    {
        "characters": "中文",
        "pinyin": "Zhōngwén",
        "translation": "Chinese"
    },
    {
        "characters": "中秋节",
        "pinyin": "Zhōngqiū jié",
        "translation": "Mid-autumn Festival/mid autumn festival"
    },
    {
        "characters": "中餐",
        "pinyin": "zhōngcān",
        "translation": "Chinese food"
    },
    {
        "characters": "为什么",
        "pinyin": "wèishénme",
        "translation": "why"
    },
    {
        "characters": "久",
        "pinyin": "jiŭ",
        "translation": "old/long/long time"
    },
    {
        "characters": "九",
        "pinyin": "jiŭ",
        "translation": "9/nine"
    },
    {
        "characters": "也",
        "pinyin": "yĕ",
        "translation": "also"
    },
    {
        "characters": "书",
        "pinyin": "shū",
        "translation": "book"
    },
    {
        "characters": "买",
        "pinyin": "măi",
        "translation": "buy/to buy"
    },
    {
        "characters": "了",
        "pinyin": "le",
        "translation": "auxiliary word"
    },
    {
        "characters": "事情",
        "pinyin": "shìqing",
        "translation": "matter/business/event/affair/incident"
    },
    {
        "characters": "二",
        "pinyin": "èr",
        "translation": "two/2"
    },
    {
        "characters": "互相",
        "pinyin": "hùxiāng",
        "translation": "each other/mutually/mutual"
    },
    {
        "characters": "五",
        "pinyin": "wŭ",
        "translation": "five/5"
    },
    {
        "characters": "人",
        "pinyin": "rén",
        "translation": "person/man"
    },
    {
        "characters": "人民币",
        "pinyin": "Rén mín bì",
        "translation": "Renminbi/Chinese currency/RMB"
    },
    {
        "characters": "人肉搜索",
        "pinyin": "rénròusōusuŏ",
        "translation": "human flesh search engine/crowdsource/internet vigilante"
    },
    {
        "characters": "什么",
        "pinyin": "shénme",
        "translation": "what"
    },
    {
        "characters": "今天",
        "pinyin": "jīntiān",
        "translation": "today"
    },
    {
        "characters": "今年",
        "pinyin": "jīnnián",
        "translation": "this year/current year/the current year"
    },
    {
        "characters": "介绍",
        "pinyin": "jièshào",
        "translation": "introduce/introduce someone"
    },
    {
        "characters": "从",
        "pinyin": "cóng",
        "translation": "from"
    },
    {
        "characters": "他",
        "pinyin": "tā",
        "translation": "he"
    },
    {
        "characters": "他们",
        "pinyin": "tāmen",
        "translation": "they"
    },
    {
        "characters": "件",
        "pinyin": "jiàn",
        "translation": "piece"
    },
    {
        "characters": "休息",
        "pinyin": "xiūxi",
        "translation": "relax/rest/have a rest/take a break"
    },
    {
        "characters": "会",
        "pinyin": "huì",
        "translation": "can/be capable of"
    },
    {
        "characters": "会议",
        "pinyin": "huìyì",
        "translation": "meeting"
    },
    {
        "characters": "伞",
        "pinyin": "săn",
        "translation": "umbrella"
    },
    {
        "characters": "但是",
        "pinyin": "dànshì",
        "translation": "but/however"
    },
    {
        "characters": "位",
        "pinyin": "wèi",
        "translation": "measure word for people/measure word for person"
    },
    {
        "characters": "住",
        "pinyin": "zhù",
        "translation": "to live/live"
    },
    {
        "characters": "你",
        "pinyin": "nĭ",
        "translation": "you"
    },
    {
        "characters": "你们",
        "pinyin": "nĭmen",
        "translation": "you"
    },
    {
        "characters": "便宜",
        "pinyin": "piányi",
        "translation": "cheap/inexpensive"
    },
    {
        "characters": "俄",
        "pinyin": "è",
        "translation": "hungry"
    },
    {
        "characters": "做",
        "pinyin": "zuò",
        "translation": "to do/do/to make/make/makes"
    },
    {
        "characters": "健康",
        "pinyin": "jiànkāng",
        "translation": "healthy"
    },
    {
        "characters": "元",
        "pinyin": "yuán",
        "translation": "Yuan"
    },
    {
        "characters": "先",
        "pinyin": "xiān",
        "translation": "first"
    },
    {
        "characters": "先生",
        "pinyin": "xiānsheng",
        "translation": "Mr/Mr./Mister/sir"
    },
    {
        "characters": "八",
        "pinyin": "bā",
        "translation": "8/eight"
    },
    {
        "characters": "公共汽车",
        "pinyin": "gōnggòngqìchē",
        "translation": "bus"
    },
    {
        "characters": "公务员",
        "pinyin": "gōngwùyuán",
        "translation": "official/public servant"
    },
    {
        "characters": "公司",
        "pinyin": "gōngsī",
        "translation": "company/firm"
    },
    {
        "characters": "公园",
        "pinyin": "gōngyuán",
        "translation": "park"
    },
    {
        "characters": "公斤",
        "pinyin": "gōngjīn",
        "translation": "kilogram/kg/kg."
    },
    {
        "characters": "六",
        "pinyin": "liù",
        "translation": "six/6"
    },
    {
        "characters": "关心",
        "pinyin": "guānxīn",
        "translation": "care/care for/care about/be concerned for/concerned for"
    },
    {
        "characters": "再",
        "pinyin": "zài",
        "translation": "again"
    },
    {
        "characters": "再见",
        "pinyin": "zàijiàn",
        "translation": "goodbye"
    },
    {
        "characters": "写",
        "pinyin": "xiĕ",
        "translation": "write/to write"
    },
    {
        "characters": "冬",
        "pinyin": "dōng",
        "translation": "winter"
    },
    {
        "characters": "冰箱",
        "pinyin": "bīngxiāng",
        "translation": "refrigerator/fridge"
    },
    {
        "characters": "决定",
        "pinyin": "juédìng",
        "translation": "decide/determine/decision"
    },
    {
        "characters": "冷",
        "pinyin": "lĕng",
        "translation": "cold"
    },
    {
        "characters": "准备",
        "pinyin": "zhŭnbèi",
        "translation": "to get ready/get ready/to prepare/prepare/to intend/intend"
    },
    {
        "characters": "几",
        "pinyin": "jĭ",
        "translation": "how many/how much"
    },
    {
        "characters": "几乎",
        "pinyin": "jīhū",
        "translation": "almost/nearly"
    },
    {
        "characters": "出",
        "pinyin": "chū",
        "translation": "exit/go out/go"
    },
    {
        "characters": "出租车",
        "pinyin": "chūzūchē",
        "translation": "taxi"
    },
    {
        "characters": "分",
        "pinyin": "fēn",
        "translation": "minute"
    },
    {
        "characters": "别",
        "pinyin": "bié",
        "translation": "don't/do not"
    },
    {
        "characters": "别的",
        "pinyin": "biéde",
        "translation": "other"
    },
    {
        "characters": "刮风",
        "pinyin": "guāfēng",
        "translation": "blow/wind blow/wind blows"
    },
    {
        "characters": "到",
        "pinyin": "dào",
        "translation": "arrive/reach"
    },
    {
        "characters": "刻",
        "pinyin": "kè",
        "translation": "measure word/measure word for short time/quarter hour"
    },
    {
        "characters": "办公室",
        "pinyin": "bànggōngshì",
        "translation": "office"
    },
    {
        "characters": "努力",
        "pinyin": "nŭlì",
        "translation": "hard-working/dilligent"
    },
    {
        "characters": "包",
        "pinyin": "bāo",
        "translation": "bag"
    },
    {
        "characters": "北京",
        "pinyin": "Bĕijīng",
        "translation": "Beijing"
    },
    {
        "characters": "医生",
        "pinyin": "yīshēng",
        "translation": "doctor/surgeon"
    },
    {
        "characters": "医院",
        "pinyin": "yīyuàn",
        "translation": "hospital"
    },
    {
        "characters": "十",
        "pinyin": "shí",
        "translation": "ten/10"
    },
    {
        "characters": "千",
        "pinyin": "qiān",
        "translation": "thousand/1000/1,000"
    },
    {
        "characters": "午饭",
        "pinyin": "wŭfàn",
        "translation": "lunch"
    },
    {
        "characters": "半",
        "pinyin": "bàn",
        "translation": "half"
    },
    {
        "characters": "单人间",
        "pinyin": "dānrén jiān",
        "translation": "single room"
    },
    {
        "characters": "单元",
        "pinyin": "dānyuán",
        "translation": "unit/entrance"
    },
    {
        "characters": "卖",
        "pinyin": "mài",
        "translation": "to sell/sell"
    },
    {
        "characters": "南",
        "pinyin": "nán",
        "translation": "south"
    },
    {
        "characters": "博主",
        "pinyin": "bózhŭ",
        "translation": "blogger"
    },
    {
        "characters": "卡",
        "pinyin": "kă",
        "translation": "card"
    },
    {
        "characters": "卫生间",
        "pinyin": "wèishēngjiān",
        "translation": "bathroom"
    },
    {
        "characters": "去",
        "pinyin": "qù",
        "translation": "go/to go"
    },
    {
        "characters": "去年",
        "pinyin": "qùnián",
        "translation": "last year"
    },
    {
        "characters": "参加",
        "pinyin": "cānjiā",
        "translation": "join/attend"
    },
    {
        "characters": "又",
        "pinyin": "yòu",
        "translation": "again/also"
    },
    {
        "characters": "双",
        "pinyin": "shuāng",
        "translation": "pair/measure word"
    },
    {
        "characters": "发",
        "pinyin": "fā",
        "translation": "send/deliver担心"
    },
    {
        "characters": "叔叔",
        "pinyin": "shūshu",
        "translation": "uncle/father's younger brother"
    },
    {
        "characters": "变化",
        "pinyin": "biànhuà",
        "translation": "change/to change/transformation"
    },
    {
        "characters": "口",
        "pinyin": "kŏu",
        "translation": "mouth/measure word/measure word for family members/population/mouthful"
    },
    {
        "characters": "口语",
        "pinyin": "kŏuyŭ",
        "translation": "spoken language"
    },
    {
        "characters": "只",
        "pinyin": "zhĭ",
        "translation": "only"
    },
    {
        "characters": "叫",
        "pinyin": "jiào",
        "translation": "to be called/called"
    },
    {
        "characters": "可以",
        "pinyin": "kĕyĭ",
        "translation": "can/may"
    },
    {
        "characters": "可是",
        "pinyin": "kĕshì",
        "translation": "but"
    },
    {
        "characters": "可爱",
        "pinyin": "kĕài",
        "translation": "adorable/cute"
    },
    {
        "characters": "可能",
        "pinyin": "kĕnéng",
        "translation": "maybe/probably/possibly"
    },
    {
        "characters": "右",
        "pinyin": "yòu",
        "translation": "right"
    },
    {
        "characters": "右边",
        "pinyin": "yòubian",
        "translation": "right/right side/on the right"
    },
    {
        "characters": "号",
        "pinyin": "hào",
        "translation": "number"
    },
    {
        "characters": "号码",
        "pinyin": "hàomă",
        "translation": "number"
    },
    {
        "characters": "吃",
        "pinyin": "chī",
        "translation": "to eat/eat"
    },
    {
        "characters": "同事",
        "pinyin": "tóngshì",
        "translation": "colleague"
    },
    {
        "characters": "同学",
        "pinyin": "tóngxuĕ",
        "translation": "classmate/peer"
    },
    {
        "characters": "同意",
        "pinyin": "tóngyì",
        "translation": "agree/approve"
    },
    {
        "characters": "名字",
        "pinyin": "míngzi",
        "translation": "name"
    },
    {
        "characters": "向",
        "pinyin": "xiàng",
        "translation": "towards/to"
    },
    {
        "characters": "吗",
        "pinyin": "ma",
        "translation": "for question"
    },
    {
        "characters": "吧",
        "pinyin": "ba",
        "translation": "modal particle/particle"
    },
    {
        "characters": "听",
        "pinyin": "tīng",
        "translation": "hear/listen"
    },
    {
        "characters": "听力",
        "pinyin": "tīnglì",
        "translation": "listening"
    },
    {
        "characters": "告诉",
        "pinyin": "gàosu",
        "translation": "tell/inform/let know"
    },
    {
        "characters": "呢",
        "pinyin": "ne",
        "translation": "modal particle at the end of a question"
    },
    {
        "characters": "周末",
        "pinyin": "zhōumò",
        "translation": "weekend"
    },
    {
        "characters": "和",
        "pinyin": "hé",
        "translation": "and"
    },
    {
        "characters": "咖啡",
        "pinyin": "kāfēi",
        "translation": "coffee"
    },
    {
        "characters": "咱们",
        "pinyin": "zánmen",
        "translation": "we/us"
    },
    {
        "characters": "哥哥",
        "pinyin": "gēge",
        "translation": "elder brother/older brother/brother"
    },
    {
        "characters": "哪",
        "pinyin": "nă",
        "translation": "which"
    },
    {
        "characters": "售货员",
        "pinyin": "shòuhuòyuán",
        "translation": "salespeople/salesperson"
    },
    {
        "characters": "唱",
        "pinyin": "chàng",
        "translation": "to sing/sing"
    },
    {
        "characters": "唱歌",
        "pinyin": "chànggē",
        "translation": "sing/sing song"
    },
    {
        "characters": "商店",
        "pinyin": "shāngdiàn",
        "translation": "store/shop"
    },
    {
        "characters": "啤酒",
        "pinyin": "píjiŭ",
        "translation": "beer/alcohol"
    },
    {
        "characters": "啦",
        "pinyin": "la",
        "translation": "modal particle/particle"
    },
    {
        "characters": "喂",
        "pinyin": "wèi",
        "translation": "modal particle/hello/hey/hi"
    },
    {
        "characters": "喜欢",
        "pinyin": "xĭhuan",
        "translation": "to like/like"
    },
    {
        "characters": "喝",
        "pinyin": "hē",
        "translation": "to drink/drink"
    },
    {
        "characters": "四",
        "pinyin": "sì",
        "translation": "four/4"
    },
    {
        "characters": "回",
        "pinyin": "huí",
        "translation": "go back/to go back"
    },
    {
        "characters": "回答",
        "pinyin": "huídá",
        "translation": "respond/reply"
    },
    {
        "characters": "因为",
        "pinyin": "yīnwèi",
        "translation": "because"
    },
    {
        "characters": "国",
        "pinyin": "guó",
        "translation": "country"
    },
    {
        "characters": "国家",
        "pinyin": "guójiā",
        "translation": "country"
    },
    {
        "characters": "图书馆",
        "pinyin": "túshūguăn",
        "translation": "library"
    },
    {
        "characters": "在",
        "pinyin": "zài",
        "translation": "in/at"
    },
    {
        "characters": "坏",
        "pinyin": "huài",
        "translation": "broken/doesn't work/don't work"
    },
    {
        "characters": "坐",
        "pinyin": "zuò",
        "translation": "sit"
    },
    {
        "characters": "块",
        "pinyin": "kuài",
        "translation": "measure word/measure word for Yuan/piece"
    },
    {
        "characters": "城市",
        "pinyin": "chéngshì",
        "translation": "city/town"
    },
    {
        "characters": "复习",
        "pinyin": "fùxí",
        "translation": "review/to review"
    },
    {
        "characters": "夏",
        "pinyin": "xià",
        "translation": "summer"
    },
    {
        "characters": "外",
        "pinyin": "wài",
        "translation": "outer/outside"
    },
    {
        "characters": "多",
        "pinyin": "duō",
        "translation": "many/how many/much/how much"
    },
    {
        "characters": "多少",
        "pinyin": "duōshao",
        "translation": "how many/how much/number"
    },
    {
        "characters": "夜晚",
        "pinyin": "yè wăn",
        "translation": "night"
    },
    {
        "characters": "夜里",
        "pinyin": "yè lĭ",
        "translation": "in the night/during the night"
    },
    {
        "characters": "大",
        "pinyin": "dà",
        "translation": "big"
    },
    {
        "characters": "大家",
        "pinyin": "dàjiā",
        "translation": "everyone"
    },
    {
        "characters": "天",
        "pinyin": "tiān",
        "translation": "day"
    },
    {
        "characters": "天天",
        "pinyin": "tiāntiān",
        "translation": "everyday/every day"
    },
    {
        "characters": "天气",
        "pinyin": "tiānqì",
        "translation": "weather"
    },
    {
        "characters": "太",
        "pinyin": "tài",
        "translation": "extremely/too"
    },
    {
        "characters": "太阳",
        "pinyin": "tàiyáng",
        "translation": "sun"
    },
    {
        "characters": "头发",
        "pinyin": "tóufa",
        "translation": "hair"
    },
    {
        "characters": "奇怪",
        "pinyin": "qíguài",
        "translation": "strange/weird"
    },
    {
        "characters": "女",
        "pinyin": "nǚ",
        "translation": "woman/female"
    },
    {
        "characters": "女人",
        "pinyin": "nǚrén",
        "translation": "woman/female"
    },
    {
        "characters": "奶奶",
        "pinyin": "năinai",
        "translation": "grandmother/grandma"
    },
    {
        "characters": "她",
        "pinyin": "tā",
        "translation": "she"
    },
    {
        "characters": "她们",
        "pinyin": "tāmen",
        "translation": "they"
    },
    {
        "characters": "好",
        "pinyin": "hăo",
        "translation": "good"
    },
    {
        "characters": "好吃",
        "pinyin": "hăochī",
        "translation": "delicious/tasty"
    },
    {
        "characters": "好听",
        "pinyin": "hăotīng",
        "translation": "pleasant to hear"
    },
    {
        "characters": "如果",
        "pinyin": "rúguŏ",
        "translation": "if"
    },
    {
        "characters": "妈妈",
        "pinyin": "māma",
        "translation": "mother/mom"
    },
    {
        "characters": "妹妹",
        "pinyin": "mèimei",
        "translation": "younger sister/little sister/sister"
    },
    {
        "characters": "妻子",
        "pinyin": "qīzi",
        "translation": "wife"
    },
    {
        "characters": "姐姐",
        "pinyin": "jiĕjie",
        "translation": "elder sister"
    },
    {
        "characters": "姓",
        "pinyin": "xìng",
        "translation": "take/last name/surname"
    },
    {
        "characters": "字",
        "pinyin": "zì",
        "translation": "character/word"
    },
    {
        "characters": "季节",
        "pinyin": "jìjié",
        "translation": "season"
    },
    {
        "characters": "学习",
        "pinyin": "xuéxí",
        "translation": "study/to study"
    },
    {
        "characters": "学校",
        "pinyin": "xuéxiào",
        "translation": "school"
    },
    {
        "characters": "学生",
        "pinyin": "xuésheng",
        "translation": "student"
    },
    {
        "characters": "孩子",
        "pinyin": "háizi",
        "translation": "child/kid"
    },
    {
        "characters": "它",
        "pinyin": "tā",
        "translation": "it/its"
    },
    {
        "characters": "宅女",
        "pinyin": "zháinǚ",
        "translation": "woman who stays at home all the time/woman who stays at home all the time/otaku/nerd/geek/otaku girl"
    },
    {
        "characters": "宅男",
        "pinyin": "zháinán",
        "translation": "guy who stays at home all the time/man who stays at home all the time/otaku/nerd/geek"
    },
    {
        "characters": "安静",
        "pinyin": "ānjìng",
        "translation": "quiet/calm"
    },
    {
        "characters": "完",
        "pinyin": "wán",
        "translation": "finished/finish/used up/run out/ran out/used"
    },
    {
        "characters": "完成",
        "pinyin": "wánchéng",
        "translation": "complete/finish"
    },
    {
        "characters": "客人",
        "pinyin": "kèrén",
        "translation": "guest"
    },
    {
        "characters": "客气",
        "pinyin": "kèqi",
        "translation": "polite"
    },
    {
        "characters": "害怕",
        "pinyin": "hàipà",
        "translation": "fear/be afraid/afraid"
    },
    {
        "characters": "家",
        "pinyin": "jiā",
        "translation": "home"
    },
    {
        "characters": "容易",
        "pinyin": "róngyì",
        "translation": "easy"
    },
    {
        "characters": "宾馆",
        "pinyin": "bīnguăn",
        "translation": "hotel"
    },
    {
        "characters": "宿舍",
        "pinyin": "sùshè",
        "translation": "dorm/dormitory"
    },
    {
        "characters": "对",
        "pinyin": "duì",
        "translation": "right"
    },
    {
        "characters": "对不起",
        "pinyin": "duì buqĭ",
        "translation": "sorry"
    },
    {
        "characters": "小",
        "pinyin": "xiăo",
        "translation": "small"
    },
    {
        "characters": "小丽",
        "pinyin": "Xiăolì",
        "translation": "name/Xiaoli"
    },
    {
        "characters": "小姐",
        "pinyin": "xiăojiĕ",
        "translation": "Miss/young lady"
    },
    {
        "characters": "小川",
        "pinyin": "Xiăochuān",
        "translation": "Ogawa"
    },
    {
        "characters": "小时",
        "pinyin": "xiăoshí",
        "translation": "hour"
    },
    {
        "characters": "小说",
        "pinyin": "xiăoshuō",
        "translation": "fiction"
    },
    {
        "characters": "少",
        "pinyin": "shăo",
        "translation": "not much/not many/few"
    },
    {
        "characters": "尝",
        "pinyin": "cháng",
        "translation": "taste/try"
    },
    {
        "characters": "就",
        "pinyin": "jiù",
        "translation": "immediately/right now/right away"
    },
    {
        "characters": "层",
        "pinyin": "céng",
        "translation": "measure word/floor/floors/layer/layers"
    },
    {
        "characters": "岁",
        "pinyin": "suì",
        "translation": "old/years old/year old/measure word"
    },
    {
        "characters": "工作",
        "pinyin": "gōngzuò",
        "translation": "work/to work"
    },
    {
        "characters": "左",
        "pinyin": "zuŏ",
        "translation": "left"
    },
    {
        "characters": "左边",
        "pinyin": "zuŏbian",
        "translation": "left/left side/on the left"
    },
    {
        "characters": "差",
        "pinyin": "chà",
        "translation": "less/less than/to be less than/inferior"
    },
    {
        "characters": "已经",
        "pinyin": "yĭjīng",
        "translation": "already/yet"
    },
    {
        "characters": "巴西",
        "pinyin": "Bāxī",
        "translation": "Brazil"
    },
    {
        "characters": "希望",
        "pinyin": "xīwàng",
        "translation": "hope/wish/want"
    },
    {
        "characters": "帮助",
        "pinyin": "bāngzhù",
        "translation": "to help/help"
    },
    {
        "characters": "常",
        "pinyin": "cháng",
        "translation": "always/ever/often/frequently/common/general/constant"
    },
    {
        "characters": "常常",
        "pinyin": "chángcháng",
        "translation": "often/frequently"
    },
    {
        "characters": "帽子",
        "pinyin": "màozi",
        "translation": "hat/cap"
    },
    {
        "characters": "干净",
        "pinyin": "gānjìng",
        "translation": "clean"
    },
    {
        "characters": "年轻",
        "pinyin": "niánqīng",
        "translation": "young"
    },
    {
        "characters": "广州",
        "pinyin": "Guăngzhōu",
        "translation": "Guangzhou"
    },
    {
        "characters": "庆祝",
        "pinyin": "qìngzhù",
        "translation": "celebrate/to celebrate"
    },
    {
        "characters": "开",
        "pinyin": "kāi",
        "translation": "open/start/operate/drive"
    },
    {
        "characters": "开发人员",
        "pinyin": "kāifārényuán",
        "translation": "developer"
    },
    {
        "characters": "开始",
        "pinyin": "kāishĭ",
        "translation": "start/begin"
    },
    {
        "characters": "弟弟",
        "pinyin": "dìdi",
        "translation": "younger brother/little brother/brother"
    },
    {
        "characters": "张",
        "pinyin": "zhāng",
        "translation": "measure word"
    },
    {
        "characters": "当然",
        "pinyin": "dāngrán",
        "translation": "of course/certainly/without a doubt/as it should be"
    },
    {
        "characters": "影响",
        "pinyin": "yĭxiăng",
        "translation": "influence/effect/shape"
    },
    {
        "characters": "往",
        "pinyin": "wăng",
        "translation": "to/toward/towards/to go/go"
    },
    {
        "characters": "很",
        "pinyin": "hĕn",
        "translation": "very"
    },
    {
        "characters": "得",
        "pinyin": "de",
        "translation": "structural particle/particle"
    },
    {
        "characters": "德国",
        "pinyin": "Déguó",
        "translation": "Germany"
    },
    {
        "characters": "必须",
        "pinyin": "bìxū",
        "translation": "must/have to/to have to/necessary/necessarily"
    },
    {
        "characters": "忙",
        "pinyin": "máng",
        "translation": "busy"
    },
    {
        "characters": "快",
        "pinyin": "kuài",
        "translation": "quick/quickly/rapid/speed/rate/fast"
    },
    {
        "characters": "快乐",
        "pinyin": "kuaìlè",
        "translation": "happy/merry"
    },
    {
        "characters": "怎么",
        "pinyin": "zĕnme",
        "translation": "how/what/why"
    },
    {
        "characters": "怎么样",
        "pinyin": "zĕnmeyàng",
        "translation": "how about/how/how was it/how are things"
    },
    {
        "characters": "总是",
        "pinyin": "zŏngshì",
        "translation": "always"
    },
    {
        "characters": "您",
        "pinyin": "nín",
        "translation": "you"
    },
    {
        "characters": "想",
        "pinyin": "xiăng",
        "translation": "to want/want"
    },
    {
        "characters": "意大利",
        "pinyin": "Yìdàlì",
        "translation": "Italy"
    },
    {
        "characters": "意大利语",
        "pinyin": "Yìdàlìyŭ",
        "translation": "Italian"
    },
    {
        "characters": "意思",
        "pinyin": "yìsi",
        "translation": "opinion/idea/concept"
    },
    {
        "characters": "愿意",
        "pinyin": "yuànyì",
        "translation": "be willing/willing/hope"
    },
    {
        "characters": "慢",
        "pinyin": "màn",
        "translation": "slow/slowly"
    },
    {
        "characters": "懂",
        "pinyin": "dŏng",
        "translation": "understand"
    },
    {
        "characters": "成绩",
        "pinyin": "chéngjì",
        "translation": "achievement/result"
    },
    {
        "characters": "我",
        "pinyin": "wŏ",
        "translation": "I"
    },
    {
        "characters": "我们",
        "pinyin": "wŏmen",
        "translation": "we/us"
    },
    {
        "characters": "或者",
        "pinyin": "huòzhĕ",
        "translation": "or/possibly/maybe/perhaps"
    },
    {
        "characters": "房间",
        "pinyin": "fángjiān",
        "translation": "room"
    },
    {
        "characters": "所以",
        "pinyin": "suŏyĭ",
        "translation": "so/therefore/as a result/the reason why"
    },
    {
        "characters": "手机",
        "pinyin": "shŏujī",
        "translation": "cellphone/mobile phone"
    },
    {
        "characters": "手表",
        "pinyin": "shŏubiăo",
        "translation": "wrist watch/watch"
    },
    {
        "characters": "打算",
        "pinyin": "dăsuàn",
        "translation": "plan/to plan/intend/calculate/intention/calculation"
    },
    {
        "characters": "打篮球",
        "pinyin": "dălánqiú",
        "translation": "play basketball/basketball"
    },
    {
        "characters": "找",
        "pinyin": "zhăo",
        "translation": "seek/look for"
    },
    {
        "characters": "护照",
        "pinyin": "hùshào",
        "translation": "passport"
    },
    {
        "characters": "报纸",
        "pinyin": "bàozhĭ",
        "translation": "newspaper"
    },
    {
        "characters": "抱",
        "pinyin": "băo",
        "translation": "full/not hungry"
    },
    {
        "characters": "换",
        "pinyin": "huàn",
        "translation": "exchange/change"
    },
    {
        "characters": "接",
        "pinyin": "jiē",
        "translation": "accept/receive"
    },
    {
        "characters": "提高",
        "pinyin": "tígāo",
        "translation": "raise/improve/increase"
    },
    {
        "characters": "放心",
        "pinyin": "fàngxīn",
        "translation": "be assured/feel at ease"
    },
    {
        "characters": "教",
        "pinyin": "jiāo",
        "translation": "teach"
    },
    {
        "characters": "教室",
        "pinyin": "jiàoshì",
        "translation": "classroom/class"
    },
    {
        "characters": "文化",
        "pinyin": "wénhuà",
        "translation": "culture"
    },
    {
        "characters": "斤",
        "pinyin": "jīn",
        "translation": "measure word"
    },
    {
        "characters": "新",
        "pinyin": "xīn",
        "translation": "new/up-to-date/up to date"
    },
    {
        "characters": "新鲜",
        "pinyin": "xīnxiān",
        "translation": "fresh"
    },
    {
        "characters": "旁边",
        "pinyin": "pángbiān",
        "translation": "side/by the side/by the side of/nearby/near"
    },
    {
        "characters": "旅游",
        "pinyin": "lǚyóu",
        "translation": "travel"
    },
    {
        "characters": "日",
        "pinyin": "rì",
        "translation": "day/date"
    },
    {
        "characters": "日（号）",
        "pinyin": "rì (hào)",
        "translation": "date"
    },
    {
        "characters": "日常",
        "pinyin": "rìcháng",
        "translation": "daily"
    },
    {
        "characters": "日本",
        "pinyin": "Rìbĕn",
        "translation": "Japan"
    },
    {
        "characters": "旧",
        "pinyin": "jiù",
        "translation": "old/worn/worn out"
    },
    {
        "characters": "早",
        "pinyin": "zăo",
        "translation": "early/morning/good morning"
    },
    {
        "characters": "早上",
        "pinyin": "zăoshang",
        "translation": "morning"
    },
    {
        "characters": "时间",
        "pinyin": "shíjiān",
        "translation": "time"
    },
    {
        "characters": "明天",
        "pinyin": "míngtiān",
        "translation": "tomorrow"
    },
    {
        "characters": "明白",
        "pinyin": "míngbai",
        "translation": "clear"
    },
    {
        "characters": "星期",
        "pinyin": "xīngqī",
        "translation": "week/weekday/day of the week"
    },
    {
        "characters": "春",
        "pinyin": "chūn",
        "translation": "spring"
    },
    {
        "characters": "是",
        "pinyin": "shì",
        "translation": "is"
    },
    {
        "characters": "晚",
        "pinyin": "wăn",
        "translation": "late/evening/night"
    },
    {
        "characters": "晚上",
        "pinyin": "wănshang",
        "translation": "evening/night"
    },
    {
        "characters": "晴",
        "pinyin": "qíng",
        "translation": "fine/clear"
    },
    {
        "characters": "最",
        "pinyin": "zuì",
        "translation": "most"
    },
    {
        "characters": "最近",
        "pinyin": "zuìjìn",
        "translation": "recently/lately"
    },
    {
        "characters": "月",
        "pinyin": "yuè",
        "translation": "month"
    },
    {
        "characters": "月亮",
        "pinyin": "yuèliang",
        "translation": "moon"
    },
    {
        "characters": "有",
        "pinyin": "yŏu",
        "translation": "have"
    },
    {
        "characters": "有名",
        "pinyin": "yŏumíng",
        "translation": "famous/well-known"
    },
    {
        "characters": "有时",
        "pinyin": "yŏu shí",
        "translation": "sometimes"
    },
    {
        "characters": "朋友",
        "pinyin": "péngyou",
        "translation": "friend"
    },
    {
        "characters": "服务员",
        "pinyin": "fúwùyuán",
        "translation": "attendant/waiter/waitress"
    },
    {
        "characters": "本",
        "pinyin": "bĕn",
        "translation": "measure word for books/measure word for book"
    },
    {
        "characters": "机会",
        "pinyin": "jīhuì",
        "translation": "opportunity"
    },
    {
        "characters": "机场",
        "pinyin": "jīchăng",
        "translation": "airport"
    },
    {
        "characters": "来",
        "pinyin": "lái",
        "translation": "come"
    },
    {
        "characters": "杯子",
        "pinyin": "bēizi",
        "translation": "cup/glass"
    },
    {
        "characters": "极",
        "pinyin": "jí",
        "translation": "extremely/very"
    },
    {
        "characters": "根",
        "pinyin": "gēn",
        "translation": "with"
    },
    {
        "characters": "桔色",
        "pinyin": "jú sè",
        "translation": "orange"
    },
    {
        "characters": "检查",
        "pinyin": "jiănchá",
        "translation": "examine/check/audit"
    },
    {
        "characters": "棕色",
        "pinyin": "zōng sè",
        "translation": "brown"
    },
    {
        "characters": "楼",
        "pinyin": "lóu",
        "translation": "building"
    },
    {
        "characters": "次",
        "pinyin": "cì",
        "translation": "time"
    },
    {
        "characters": "欢迎",
        "pinyin": "huānyīng",
        "translation": "welcome"
    },
    {
        "characters": "歌",
        "pinyin": "gē",
        "translation": "song"
    },
    {
        "characters": "正在",
        "pinyin": "zhèngzài",
        "translation": "in the middle of/in the process of"
    },
    {
        "characters": "段",
        "pinyin": "duàn",
        "translation": "paragraph/paragraphs/short time/distance"
    },
    {
        "characters": "每",
        "pinyin": "mĕi",
        "translation": "every/each"
    },
    {
        "characters": "每个星期",
        "pinyin": "mĕi gè xīng qī",
        "translation": "every week"
    },
    {
        "characters": "每天",
        "pinyin": "mĕi tiān",
        "translation": "every day"
    },
    {
        "characters": "每天早上",
        "pinyin": "mĕi tiān zăo shàng",
        "translation": "every morning"
    },
    {
        "characters": "比",
        "pinyin": "bĭ",
        "translation": "comparison/by comparison/for comparison/compare/to compare"
    },
    {
        "characters": "比赛",
        "pinyin": "bĭsài",
        "translation": "to have a match/have a match"
    },
    {
        "characters": "毛",
        "pinyin": "máo",
        "translation": "measure word"
    },
    {
        "characters": "水",
        "pinyin": "shuĭ",
        "translation": "water"
    },
    {
        "characters": "水平",
        "pinyin": "shuĭpíng",
        "translation": "level/standard/level of skill/level of ability"
    },
    {
        "characters": "汉字",
        "pinyin": "Hànzì",
        "translation": "Chinese character"
    },
    {
        "characters": "汉语",
        "pinyin": "Hànyŭ",
        "translation": "Chinese"
    },
    {
        "characters": "没",
        "pinyin": "méi",
        "translation": "not/haven't/have not/not have"
    },
    {
        "characters": "没 关系",
        "pinyin": "méi guānxi",
        "translation": "that's all right/no problem/nevermind"
    },
    {
        "characters": "没有",
        "pinyin": "méiyŏu",
        "translation": "has not/does not have/do not have/not have/don't have"
    },
    {
        "characters": "法国",
        "pinyin": "Făguó",
        "translation": "France"
    },
    {
        "characters": "法语",
        "pinyin": "Făyŭ",
        "translation": "French"
    },
    {
        "characters": "洗",
        "pinyin": "xĭ",
        "translation": "to wash/wash"
    },
    {
        "characters": "洗手间",
        "pinyin": "xĭshŏujiān",
        "translation": "toilet/restroom"
    },
    {
        "characters": "流利",
        "pinyin": "liúlì",
        "translation": "fluent"
    },
    {
        "characters": "浅",
        "pinyin": "qiăn",
        "translation": "light color/lighter color/lighter"
    },
    {
        "characters": "深",
        "pinyin": "shēn",
        "translation": "dark color/darker color/darker"
    },
    {
        "characters": "清楚",
        "pinyin": "qīngchu",
        "translation": "clear/sharp"
    },
    {
        "characters": "渴",
        "pinyin": "kĕ",
        "translation": "thirsty"
    },
    {
        "characters": "游戏",
        "pinyin": "yoúxì",
        "translation": "game"
    },
    {
        "characters": "游泳",
        "pinyin": "yóuyŏng",
        "translation": "swim/to swim"
    },
    {
        "characters": "满意",
        "pinyin": "mănyì",
        "translation": "be satisfied/satisfied"
    },
    {
        "characters": "漂亮",
        "pinyin": "piàoliang",
        "translation": "pretty/beautiful"
    },
    {
        "characters": "灯",
        "pinyin": "dēng",
        "translation": "lamp/light"
    },
    {
        "characters": "灰色",
        "pinyin": "huī sè",
        "translation": "gray"
    },
    {
        "characters": "点",
        "pinyin": "diăn",
        "translation": "measure word/measure word for time"
    },
    {
        "characters": "点心",
        "pinyin": "diănxin",
        "translation": "desert"
    },
    {
        "characters": "热",
        "pinyin": "rè",
        "translation": "hot/high temperature"
    },
    {
        "characters": "热情",
        "pinyin": "rèqíng",
        "translation": "enthusiastic/cordial/passion/passionate/passionately"
    },
    {
        "characters": "然后",
        "pinyin": "ránhòu",
        "translation": "then/afterwards/after"
    },
    {
        "characters": "照片",
        "pinyin": "zhàopiàn",
        "translation": "photo/photograph/picture"
    },
    {
        "characters": "照相机",
        "pinyin": "zhàoxiángjī",
        "translation": "camera"
    },
    {
        "characters": "爷爷",
        "pinyin": "yéye",
        "translation": "grandfather/grandpa/paternal grandfather/title of respect for an old man"
    },
    {
        "characters": "版主",
        "pinyin": "bănzhŭ",
        "translation": "moderator/mod"
    },
    {
        "characters": "牛奶",
        "pinyin": "niú năi",
        "translation": "milk"
    },
    {
        "characters": "牛排",
        "pinyin": "niúpái",
        "translation": "steak"
    },
    {
        "characters": "牛肉",
        "pinyin": "niú ròu",
        "translation": "beef"
    },
    {
        "characters": "特别",
        "pinyin": "tèbié",
        "translation": "especially"
    },
    {
        "characters": "狗",
        "pinyin": "gōu",
        "translation": "dog"
    },
    {
        "characters": "猫",
        "pinyin": "māo",
        "translation": "cat"
    },
    {
        "characters": "玛丽",
        "pinyin": "Mălì",
        "translation": "Mary"
    },
    {
        "characters": "玩",
        "pinyin": "wán",
        "translation": "play"
    },
    {
        "characters": "环境",
        "pinyin": "huánjìng",
        "translation": "environment/surroundings"
    },
    {
        "characters": "班",
        "pinyin": "bān",
        "translation": "class"
    },
    {
        "characters": "球迷",
        "pinyin": "qiúmí",
        "translation": "fan/football fan/soccer fan"
    },
    {
        "characters": "瓶",
        "pinyin": "píng",
        "translation": "bottle"
    },
    {
        "characters": "甜",
        "pinyin": "tián",
        "translation": "sweet"
    },
    {
        "characters": "生日",
        "pinyin": "shēngrì",
        "translation": "birthday"
    },
    {
        "characters": "生气",
        "pinyin": "shēngqì",
        "translation": "be angry/angry/get angry"
    },
    {
        "characters": "生病",
        "pinyin": "shēngbìng",
        "translation": "sick/ill/become sick/become ill"
    },
    {
        "characters": "用户",
        "pinyin": "yònghù",
        "translation": "user"
    },
    {
        "characters": "电子邮件",
        "pinyin": "diànzĭyŏujiàn",
        "translation": "email"
    },
    {
        "characters": "电影",
        "pinyin": "diànyĭng",
        "translation": "film/movie"
    },
    {
        "characters": "电梯",
        "pinyin": "diàntī",
        "translation": "do1ng"
    },
    {
        "characters": "电脑编程",
        "pinyin": "diànnăobiānchéng",
        "translation": "programming/computer programming"
    },
    {
        "characters": "电视",
        "pinyin": "diànshì",
        "translation": "TV/television"
    },
    {
        "characters": "电话",
        "pinyin": "diànhuà",
        "translation": "phone/telephone"
    },
    {
        "characters": "男",
        "pinyin": "nán",
        "translation": "man/male"
    },
    {
        "characters": "男人",
        "pinyin": "nánrén",
        "translation": "man/male"
    },
    {
        "characters": "留学生",
        "pinyin": "liúxuéshēng",
        "translation": "foreign student"
    },
    {
        "characters": "瘦",
        "pinyin": "shòu",
        "translation": "thin/skinny"
    },
    {
        "characters": "白",
        "pinyin": "bāi",
        "translation": "white"
    },
    {
        "characters": "白色",
        "pinyin": "bái sè",
        "translation": "white"
    },
    {
        "characters": "百",
        "pinyin": "băi",
        "translation": "one hundred/hundred/100"
    },
    {
        "characters": "的",
        "pinyin": "de",
        "translation": "of"
    },
    {
        "characters": "盘子",
        "pinyin": "pánzi",
        "translation": "plate/dish"
    },
    {
        "characters": "盘山",
        "pinyin": "pánshān",
        "translation": "climb a mountain/to climb a mountain/climb mountain"
    },
    {
        "characters": "相信",
        "pinyin": "xiāngxìn",
        "translation": "believe/have faith/have faith in"
    },
    {
        "characters": "看",
        "pinyin": "kàn",
        "translation": "see"
    },
    {
        "characters": "看见",
        "pinyin": "kànjiàn",
        "translation": "see/look/watch/view"
    },
    {
        "characters": "真",
        "pinyin": "zhēn",
        "translation": "indeed/really"
    },
    {
        "characters": "眼睛",
        "pinyin": "yănjing",
        "translation": "eye"
    },
    {
        "characters": "着",
        "pinyin": "zhe",
        "translation": "action starts and continues/aspect particle/in progress"
    },
    {
        "characters": "着急",
        "pinyin": "zháojí",
        "translation": "be worried/worried/be anxious/anxious阿姨"
    },
    {
        "characters": "知道",
        "pinyin": "zhīdào",
        "translation": "know/to know"
    },
    {
        "characters": "短",
        "pinyin": "duăn",
        "translation": "short/short distance"
    },
    {
        "characters": "矮",
        "pinyin": "ăi",
        "translation": "short/short height"
    },
    {
        "characters": "碗",
        "pinyin": "wăn",
        "translation": "bowl/measure word"
    },
    {
        "characters": "礼物",
        "pinyin": "lĭwù",
        "translation": "present/gift"
    },
    {
        "characters": "祝",
        "pinyin": "zhù",
        "translation": "wish"
    },
    {
        "characters": "票",
        "pinyin": "piào",
        "translation": "ticket"
    },
    {
        "characters": "离",
        "pinyin": "lí",
        "translation": "away/away from/leave/to leave/to part/to be away from"
    },
    {
        "characters": "离开",
        "pinyin": "líkaī",
        "translation": "leave/depart/to leave/to depart"
    },
    {
        "characters": "秋",
        "pinyin": "qiū",
        "translation": "fall/autumn"
    },
    {
        "characters": "种",
        "pinyin": "zhŏng",
        "translation": "measure word"
    },
    {
        "characters": "秒",
        "pinyin": "miăo",
        "translation": "second"
    },
    {
        "characters": "程序员",
        "pinyin": "chéngxùyuán",
        "translation": "programmer"
    },
    {
        "characters": "空调",
        "pinyin": "kōngtiáo",
        "translation": "air conditioning/air conditioner"
    },
    {
        "characters": "穿",
        "pinyin": "chuān",
        "translation": "wear/put on"
    },
    {
        "characters": "笑",
        "pinyin": "xiào",
        "translation": "laugh/smile"
    },
    {
        "characters": "笔记本",
        "pinyin": "bĭjìbĕn",
        "translation": "notebook/note book"
    },
    {
        "characters": "第",
        "pinyin": "dì",
        "translation": "prefix"
    },
    {
        "characters": "第一",
        "pinyin": "dìyī",
        "translation": "first/1st"
    },
    {
        "characters": "第一次",
        "pinyin": "dìyīcì",
        "translation": "for the first time/the first time/first time/first/number one"
    },
    {
        "characters": "等",
        "pinyin": "dĕng",
        "translation": "so on/and so on/et cetera"
    },
    {
        "characters": "筷子",
        "pinyin": "kuàizi",
        "translation": "chopsticks"
    },
    {
        "characters": "管理员",
        "pinyin": "guănlĭyuán",
        "translation": "administrator/admin"
    },
    {
        "characters": "米",
        "pinyin": "mĭ",
        "translation": "meter"
    },
    {
        "characters": "粉红色",
        "pinyin": "fĕn hóng sè",
        "translation": "pink"
    },
    {
        "characters": "精读",
        "pinyin": "jīngdú",
        "translation": "intensive reading"
    },
    {
        "characters": "紫色",
        "pinyin": "zĭ sè",
        "translation": "purple"
    },
    {
        "characters": "累",
        "pinyin": "lèi",
        "translation": "tired/fatigued"
    },
    {
        "characters": "红",
        "pinyin": "hóng",
        "translation": "red"
    },
    {
        "characters": "红色",
        "pinyin": "hóng sè",
        "translation": "red"
    },
    {
        "characters": "约会",
        "pinyin": "yuēhuì",
        "translation": "appointment/date"
    },
    {
        "characters": "终于",
        "pinyin": "zhōngyú",
        "translation": "finally/at last"
    },
    {
        "characters": "经常",
        "pinyin": "jīngcháng",
        "translation": "often/frequently/frequent"
    },
    {
        "characters": "给",
        "pinyin": "gĕi",
        "translation": "give/to give"
    },
    {
        "characters": "绿",
        "pinyin": "lǜ",
        "translation": "green"
    },
    {
        "characters": "绿色",
        "pinyin": "lǜ sè",
        "translation": "green"
    },
    {
        "characters": "网友",
        "pinyin": "wăngyŏu",
        "translation": "internet friend"
    },
    {
        "characters": "网络公民",
        "pinyin": "wăngluògōngmín",
        "translation": "netizen"
    },
    {
        "characters": "羊肉",
        "pinyin": "yángròu",
        "translation": "mutton"
    },
    {
        "characters": "美国",
        "pinyin": "Mĕiguó",
        "translation": "USA/U.S.A./America/United States of America"
    },
    {
        "characters": "老师",
        "pinyin": "lăoshī",
        "translation": "teacher"
    },
    {
        "characters": "老板",
        "pinyin": "lăobăn",
        "translation": "boss"
    },
    {
        "characters": "考试",
        "pinyin": "kăoshì",
        "translation": "exam/test"
    },
    {
        "characters": "耳朵",
        "pinyin": "ĕrduo",
        "translation": "ear"
    },
    {
        "characters": "聊",
        "pinyin": "liáo",
        "translation": "to talk/talk"
    },
    {
        "characters": "联系",
        "pinyin": "liànxí",
        "translation": "exercise/practice"
    },
    {
        "characters": "聪明",
        "pinyin": "cōngming",
        "translation": "smart/intelligent"
    },
    {
        "characters": "胖",
        "pinyin": "pàng",
        "translation": "fat/chubby"
    },
    {
        "characters": "能",
        "pinyin": "néng",
        "translation": "can/may"
    },
    {
        "characters": "脚",
        "pinyin": "jiăo",
        "translation": "foot"
    },
    {
        "characters": "脸",
        "pinyin": "liăn",
        "translation": "face"
    },
    {
        "characters": "腿",
        "pinyin": "tuĭ",
        "translation": "leg"
    },
    {
        "characters": "自行车",
        "pinyin": "zìxíngchē",
        "translation": "bicycle/bike"
    },
    {
        "characters": "船",
        "pinyin": "chuán",
        "translation": "boat/ship"
    },
    {
        "characters": "节",
        "pinyin": "jié",
        "translation": "festival"
    },
    {
        "characters": "节日",
        "pinyin": "jiérì",
        "translation": "holiday/festival"
    },
    {
        "characters": "节目",
        "pinyin": "jiémù",
        "translation": "program/show"
    },
    {
        "characters": "英国",
        "pinyin": "Yīngguó",
        "translation": "Great Britain/United Kingdom/UK/England"
    },
    {
        "characters": "英语",
        "pinyin": "Yīngyŭ",
        "translation": "English"
    },
    {
        "characters": "苹果",
        "pinyin": "píngguŏ",
        "translation": "apple"
    },
    {
        "characters": "药",
        "pinyin": "yào",
        "translation": "medicine"
    },
    {
        "characters": "菜",
        "pinyin": "cài",
        "translation": "food"
    },
    {
        "characters": "菜单",
        "pinyin": "càidān",
        "translation": "menu"
    },
    {
        "characters": "董",
        "pinyin": "dŏng",
        "translation": "to understand/understand"
    },
    {
        "characters": "蓝",
        "pinyin": "lán",
        "translation": "blue"
    },
    {
        "characters": "蓝色",
        "pinyin": "lán sè",
        "translation": "blue"
    },
    {
        "characters": "薯条",
        "pinyin": "shŭtiáo",
        "translation": "chips/fries"
    },
    {
        "characters": "虽然",
        "pinyin": "suīrán",
        "translation": "though/although/even though/even if"
    },
    {
        "characters": "蛋糕",
        "pinyin": "dàngāo",
        "translation": "cake"
    },
    {
        "characters": "行",
        "pinyin": "xíng",
        "translation": "okay"
    },
    {
        "characters": "行李箱",
        "pinyin": "xínglixiāng",
        "translation": "luggage/baggage"
    },
    {
        "characters": "街道",
        "pinyin": "jiēdào",
        "translation": "street"
    },
    {
        "characters": "衣服",
        "pinyin": "yīfu",
        "translation": "clothes"
    },
    {
        "characters": "衬衫",
        "pinyin": "chènshān",
        "translation": "shirt"
    },
    {
        "characters": "裙子",
        "pinyin": "qúnzi",
        "translation": "skirt/dress"
    },
    {
        "characters": "裤子",
        "pinyin": "kùzi",
        "translation": "trousers/pants"
    },
    {
        "characters": "西",
        "pinyin": "xī",
        "translation": "west"
    },
    {
        "characters": "西瓜",
        "pinyin": "xīguā",
        "translation": "watermelon"
    },
    {
        "characters": "西餐",
        "pinyin": "xīcān",
        "translation": "Western food"
    },
    {
        "characters": "要",
        "pinyin": "yào",
        "translation": "want/to want"
    },
    {
        "characters": "见",
        "pinyin": "jiàn",
        "translation": "see/to see"
    },
    {
        "characters": "觉得",
        "pinyin": "juéde",
        "translation": "to think/think"
    },
    {
        "characters": "角",
        "pinyin": "jiăo",
        "translation": "measure word"
    },
    {
        "characters": "解决",
        "pinyin": "jiĕjué",
        "translation": "solve/resolve/solve a problem/resolve an issue"
    },
    {
        "characters": "认真",
        "pinyin": "rènzhēn",
        "translation": "serious/conscientious"
    },
    {
        "characters": "认识",
        "pinyin": "rènshi",
        "translation": "get to know/acquainted"
    },
    {
        "characters": "让",
        "pinyin": "ràng",
        "translation": "let/allow/make/ask/permit"
    },
    {
        "characters": "词典",
        "pinyin": "cídiăn",
        "translation": "dictionary"
    },
    {
        "characters": "语法",
        "pinyin": "yŭfă",
        "translation": "grammar"
    },
    {
        "characters": "说",
        "pinyin": "shuō",
        "translation": "to speak/speak/to say/say"
    },
    {
        "characters": "说话",
        "pinyin": "shuōhuà",
        "translation": "speak/talk/say"
    },
    {
        "characters": "请",
        "pinyin": "qĭng",
        "translation": "please"
    },
    {
        "characters": "请问",
        "pinyin": "qĭngwèn",
        "translation": "may I ask/excuse me"
    },
    {
        "characters": "读",
        "pinyin": "dú",
        "translation": "read/to read"
    },
    {
        "characters": "课",
        "pinyin": "kè",
        "translation": "course"
    },
    {
        "characters": "谁",
        "pinyin": "shuí",
        "translation": "who"
    },
    {
        "characters": "谢谢",
        "pinyin": "xièxie",
        "translation": "thanks/thank you"
    },
    {
        "characters": "贝克汉姆",
        "pinyin": "Bèikèhànmŭ",
        "translation": "Beckham"
    },
    {
        "characters": "贵",
        "pinyin": "guì",
        "translation": "expensive"
    },
    {
        "characters": "赛",
        "pinyin": "sài",
        "translation": "match"
    },
    {
        "characters": "走",
        "pinyin": "zŏu",
        "translation": "walk/to walk/go on foot/to go on foot"
    },
    {
        "characters": "起床",
        "pinyin": "qĭchuáng",
        "translation": "get up/get out of bed/rise from bed"
    },
    {
        "characters": "超市",
        "pinyin": "chāoshì",
        "translation": "supermarket"
    },
    {
        "characters": "越",
        "pinyin": "yuè",
        "translation": "the more... the more/the more/exceed/climb over/surpass"
    },
    {
        "characters": "足球",
        "pinyin": "zúqiú",
        "translation": "football/soccer"
    },
    {
        "characters": "跑步",
        "pinyin": "păobù",
        "translation": "run/jog"
    },
    {
        "characters": "跟",
        "pinyin": "gēn",
        "translation": "with/to"
    },
    {
        "characters": "路",
        "pinyin": "lù",
        "translation": "road"
    },
    {
        "characters": "跳舞",
        "pinyin": "tiàowŭ",
        "translation": "dance"
    },
    {
        "characters": "踢",
        "pinyin": "tī",
        "translation": "to play/play/to kick/kick"
    },
    {
        "characters": "踢足球",
        "pinyin": "tīzúqiú",
        "translation": "play football/football/play soccer/soccer"
    },
    {
        "characters": "身体",
        "pinyin": "shēntĭ",
        "translation": "body"
    },
    {
        "characters": "辆",
        "pinyin": "liàng",
        "translation": "measure word/quantifier/for vehicle/for vehicles"
    },
    {
        "characters": "过",
        "pinyin": "guò",
        "translation": "to spend/spend/go over/to go over"
    },
    {
        "characters": "运动",
        "pinyin": "yùndòng",
        "translation": "exercise/do exercise"
    },
    {
        "characters": "近",
        "pinyin": "jìn",
        "translation": "close/near"
    },
    {
        "characters": "还",
        "pinyin": "hái",
        "translation": "also/still"
    },
    {
        "characters": "还是",
        "pinyin": "háishì",
        "translation": "or/nevertheless/still"
    },
    {
        "characters": "这",
        "pinyin": "zhè",
        "translation": "this/these"
    },
    {
        "characters": "这儿",
        "pinyin": "zhèr",
        "translation": "here"
    },
    {
        "characters": "进",
        "pinyin": "jìn",
        "translation": "enter/go foward/advance/to go in/go in"
    },
    {
        "characters": "远",
        "pinyin": "yuăn",
        "translation": "far"
    },
    {
        "characters": "迟到",
        "pinyin": "chídào",
        "translation": "be late/arrive late/late"
    },
    {
        "characters": "送",
        "pinyin": "sòng",
        "translation": "give/give a gift"
    },
    {
        "characters": "选择",
        "pinyin": "xuănzé",
        "translation": "choose/select"
    },
    {
        "characters": "通常",
        "pinyin": "tōng chàng",
        "translation": "usually"
    },
    {
        "characters": "那",
        "pinyin": "nà",
        "translation": "there"
    },
    {
        "characters": "那里",
        "pinyin": "nàlĭ",
        "translation": "there/that place/where"
    },
    {
        "characters": "邻居",
        "pinyin": "línjū",
        "translation": "neighbor"
    },
    {
        "characters": "都",
        "pinyin": "dōu",
        "translation": "all"
    },
    {
        "characters": "酒",
        "pinyin": "jiŭ",
        "translation": "alcohol"
    },
    {
        "characters": "酒吧",
        "pinyin": "jiŭbā",
        "translation": "bar"
    },
    {
        "characters": "里",
        "pinyin": "lĭ",
        "translation": "inside"
    },
    {
        "characters": "重要",
        "pinyin": "zhòngyào",
        "translation": "important"
    },
    {
        "characters": "金色",
        "pinyin": "jīn sè",
        "translation": "gold"
    },
    {
        "characters": "钱",
        "pinyin": "qián",
        "translation": "money"
    },
    {
        "characters": "铅笔",
        "pinyin": "qiānbĭ",
        "translation": "pencil"
    },
    {
        "characters": "银色",
        "pinyin": "yín sè",
        "translation": "silver"
    },
    {
        "characters": "银行",
        "pinyin": "yínháng",
        "translation": "bank"
    },
    {
        "characters": "错",
        "pinyin": "cuò",
        "translation": "wrong"
    },
    {
        "characters": "锻炼",
        "pinyin": "duànliàn",
        "translation": "physical exercise/exercise"
    },
    {
        "characters": "长",
        "pinyin": "cháng",
        "translation": "grow/increase"
    },
    {
        "characters": "门",
        "pinyin": "mén",
        "translation": "measure word for courses/measure word for course"
    },
    {
        "characters": "门口",
        "pinyin": "ménkŏu",
        "translation": "gate"
    },
    {
        "characters": "问",
        "pinyin": "wèn",
        "translation": "to ask/ask"
    },
    {
        "characters": "问题",
        "pinyin": "wèntí",
        "translation": "question/problem"
    },
    {
        "characters": "队",
        "pinyin": "duì",
        "translation": "team"
    },
    {
        "characters": "阴",
        "pinyin": "yīn",
        "translation": "cloudy/overcast"
    },
    {
        "characters": "附近",
        "pinyin": "fùjìn",
        "translation": "neighborhood/vicinity/nearby"
    },
    {
        "characters": "除了",
        "pinyin": "chúle",
        "translation": "except/besides/apart from/beside"
    },
    {
        "characters": "难",
        "pinyin": "nán",
        "translation": "hard/difficult"
    },
    {
        "characters": "难过",
        "pinyin": "nánguò",
        "translation": "difficult/sad"
    },
    {
        "characters": "雪",
        "pinyin": "xuĕ",
        "translation": "snow"
    },
    {
        "characters": "零",
        "pinyin": "líng",
        "translation": "zero/0"
    },
    {
        "characters": "需要",
        "pinyin": "xūyào",
        "translation": "need/want"
    },
    {
        "characters": "非常",
        "pinyin": "fēicháng",
        "translation": "very"
    },
    {
        "characters": "面包",
        "pinyin": "miànbāo",
        "translation": "bread"
    },
    {
        "characters": "面条",
        "pinyin": "mián tiào",
        "translation": "noodles"
    },
    {
        "characters": "韩国",
        "pinyin": "Hánguó",
        "translation": "Korea"
    },
    {
        "characters": "音乐",
        "pinyin": "yīnyuè",
        "translation": "music"
    },
    {
        "characters": "题",
        "pinyin": "tí",
        "translation": "questions/problems/question/problem"
    },
    {
        "characters": "颜色",
        "pinyin": "yán sè",
        "translation": "color"
    },
    {
        "characters": "风险投资",
        "pinyin": "fēngxiăntóuzī",
        "translation": "venture capital"
    },
    {
        "characters": "饭店",
        "pinyin": "fàndiàn",
        "translation": "restaurant"
    },
    {
        "characters": "饭馆",
        "pinyin": "fànguăn",
        "translation": "restaurant"
    },
    {
        "characters": "香蕉",
        "pinyin": "xiāngjiāo",
        "translation": "banana"
    },
    {
        "characters": "马丁",
        "pinyin": "Mădīng",
        "translation": "Martin"
    },
    {
        "characters": "马克",
        "pinyin": "Măkè",
        "translation": "Mark"
    },
    {
        "characters": "马马虎虎",
        "pinyin": "mămăhūhū",
        "translation": "just so-so/so-so/so so/not so bad/tolerable"
    },
    {
        "characters": "骑",
        "pinyin": "qí",
        "translation": "ride/ride bike/ride bicycle/ride animal"
    },
    {
        "characters": "高",
        "pinyin": "gāo",
        "translation": "tall/high"
    },
    {
        "characters": "高兴",
        "pinyin": "gaōxìng",
        "translation": "happy"
    },
    {
        "characters": "鱼",
        "pinyin": "yú",
        "translation": "fish"
    },
    {
        "characters": "鸡肉",
        "pinyin": "jī ròu",
        "translation": "chicken"
    },
    {
        "characters": "鸡蛋",
        "pinyin": "jī dàn",
        "translation": "egg"
    },
    {
        "characters": "麻糍",
        "pinyin": "má cí",
        "translation": "mochi"
    },
    {
        "characters": "黄色",
        "pinyin": "huáng sè",
        "translation": "yellow"
    },
    {
        "characters": "黑",
        "pinyin": "hēi",
        "translation": "black/dark"
    },
    {
        "characters": "黑客",
        "pinyin": "hēikè",
        "translation": "hacker"
    },
    {
        "characters": "黑色",
        "pinyin": "hēi sè",
        "translation": "black"
    },
    {
        "characters": "鼻子",
        "pinyin": "bízi",
        "translation": "nose"
    }
]