[
    {
        "characters": "唱歌",
        "pinyin": "chànggē",
        "translation": "sing/sing a song"
    },
    {
        "characters": "机场",
        "pinyin": "jīchăng",
        "translation": "airport"
    },
    {
        "characters": "路",
        "pinyin": "lù",
        "translation": "road"
    },
    {
        "characters": "旁边",
        "pinyin": "pángbiān",
        "translation": "side/by the side/by the side of/nearby/beside/lateral"
    },
    {
        "characters": "票",
        "pinyin": "piào",
        "translation": "ticket"
    },
    {
        "characters": "生日",
        "pinyin": "shēngrì",
        "translation": "birthday"
    },
    {
        "characters": "跳舞",
        "pinyin": "tiàowŭ",
        "translation": "dance"
    },
    {
        "characters": "外",
        "pinyin": "wài",
        "translation": "outer/outside"
    },
    {
        "characters": "玩",
        "pinyin": "wán",
        "translation": "play"
    },
    {
        "characters": "问",
        "pinyin": "wèn",
        "translation": "ask/inquire"
    },
    {
        "characters": "准备",
        "pinyin": "zhŭnbèi",
        "translation": "be going to/going to/plan/prepare/intend"
    },
    {
        "characters": "只",
        "pinyin": "zhĭ",
        "translation": "only/just"
    }
]