[
    {
        "characters": "阿姨",
        "pinyin": "āyí",
        "translation": "aunt/auntie"
    },
    {
        "characters": "机会",
        "pinyin": "jīhuì",
        "translation": "opportunity"
    },
    {
        "characters": "接",
        "pinyin": "jiē",
        "translation": "accept/receive"
    },
    {
        "characters": "解决",
        "pinyin": "jiĕjué",
        "translation": "solve/resolve/solve a problem/resolve an issue"
    },
    {
        "characters": "决定",
        "pinyin": "juédìng",
        "translation": "decide/determine/decision"
    },
    {
        "characters": "客人",
        "pinyin": "kèrén",
        "translation": "guest"
    },
    {
        "characters": "奶奶",
        "pinyin": "năinai",
        "translation": "grandmother/grandma"
    },
    {
        "characters": "叔叔",
        "pinyin": "shūshu",
        "translation": "uncle/father's younger brother"
    },
    {
        "characters": "同意",
        "pinyin": "tóngyì",
        "translation": "agree/approve"
    },
    {
        "characters": "完成",
        "pinyin": "wánchéng",
        "translation": "complete/finish"
    },
    {
        "characters": "万",
        "pinyin": "wàn",
        "translation": "ten thousand/10,000/10000/10k"
    },
    {
        "characters": "爷爷",
        "pinyin": "yéye",
        "translation": "grandfather/grandpa/paternal grandfather/title of respect for an old man"
    },
    {
        "characters": "重要",
        "pinyin": "zhòngyào",
        "translation": "important"
    }
]