[
    {
        "characters": "看见",
        "pinyin": "kànjiàn",
        "translation": "see/look/watch/view"
    },
    {
        "characters": "来",
        "pinyin": "lái",
        "translation": "come"
    },
    {
        "characters": "了",
        "pinyin": "le",
        "translation": "auxiliary/past action"
    },
    {
        "characters": "吗",
        "pinyin": "ma",
        "translation": "auxiliary/for question"
    },
    {
        "characters": "名字",
        "pinyin": "míngzi",
        "translation": "name/title"
    },
    {
        "characters": "呢",
        "pinyin": "ne",
        "translation": "auxiliary/change in status"
    },
    {
        "characters": "能",
        "pinyin": "néng",
        "translation": "can/may"
    },
    {
        "characters": "去",
        "pinyin": "qù",
        "translation": "go/leave"
    },
    {
        "characters": "认识",
        "pinyin": "rènshi",
        "translation": "get to know/acquainted"
    },
    {
        "characters": "少",
        "pinyin": "shăo",
        "translation": "not much/not many/few"
    }
]