[
    {
        "characters": "会",
        "pinyin": "huì",
        "translation": "can/be capable of"
    },
    {
        "characters": "零",
        "pinyin": "líng",
        "translation": "zero/0"
    },
    {
        "characters": "服务员",
        "pinyin": "fúwùyuán",
        "translation": "attendant/waiter/waitress"
    },
    {
        "characters": "贵",
        "pinyin": "guì",
        "translation": "expensive/costly"
    },
    {
        "characters": "好吃",
        "pinyin": "hăochī",
        "translation": "delicious"
    },
    {
        "characters": "鸡蛋",
        "pinyin": "jīdàn",
        "translation": "egg"
    },
    {
        "characters": "咖啡",
        "pinyin": "kāfēi",
        "translation": "coffee"
    },
    {
        "characters": "卖",
        "pinyin": "mài",
        "translation": "sell/to sell"
    },
    {
        "characters": "西瓜",
        "pinyin": "xīguā",
        "translation": "watermelon"
    },
    {
        "characters": "羊肉",
        "pinyin": "yángròu",
        "translation": "mutton"
    },
    {
        "characters": "鱼",
        "pinyin": "yú",
        "translation": "fish"
    }
]