[
    {
        "characters": "说话",
        "pinyin": "shuōhuà",
        "translation": "speak/talk/say"
    },
    {
        "characters": "打篮球",
        "pinyin": "dă lànqiú",
        "translation": "play basketball"
    },
    {
        "characters": "觉得",
        "pinyin": "juéde",
        "translation": "feel/think"
    },
    {
        "characters": "跑步",
        "pinyin": "păobù",
        "translation": "run/jog"
    },
    {
        "characters": "踢足球",
        "pinyin": "tī zúqiú",
        "translation": "play football/play soccer/soccer/football"
    },
    {
        "characters": "一起",
        "pinyin": "yìqĭ",
        "translation": "together"
    },
    {
        "characters": "游泳",
        "pinyin": "yóuyŏng",
        "translation": "swim"
    },
    {
        "characters": "运动",
        "pinyin": "yùndòng",
        "translation": "exercise"
    },
    {
        "characters": "知道",
        "pinyin": "zhīdào",
        "translation": "know"
    },
    {
        "characters": "走",
        "pinyin": "zŏu",
        "translation": "walk"
    }
]