[
    {
        "characters": "不",
        "pinyin": "bù",
        "translation": "no/not"
    },
    {
        "characters": "都",
        "pinyin": "dōu",
        "translation": "all"
    },
    {
        "characters": "狗",
        "pinyin": "gōu",
        "translation": "dog"
    },
    {
        "characters": "很",
        "pinyin": "hĕn",
        "translation": "very"
    },
    {
        "characters": "她",
        "pinyin": "tā",
        "translation": "she/her"
    },
    {
        "characters": "猫",
        "pinyin": "māo",
        "translation": "cat"
    },
    {
        "characters": "什么",
        "pinyin": "shénme",
        "translation": "what"
    },
    {
        "characters": "太",
        "pinyin": "tài",
        "translation": "very/extremely"
    },
    {
        "characters": "医生",
        "pinyin": "yīshēng",
        "translation": "doctor/surgeon"
    },
    {
        "characters": "医院",
        "pinyin": "yīyuàn",
        "translation": "hospital"
    },
    {
        "characters": "没",
        "pinyin": "méi",
        "translation": "don't have/have not/do not have/not"
    }
]