[
    {
        "characters": "博主",
        "pinyin": "bózhŭ",
        "translation": "blogger"
    },
    {
        "characters": "宅男",
        "pinyin": "zháinán",
        "translation": "guy who stays at home all the time/man who stays at home all the time/otaku/nerd/geek"
    },
    {
        "characters": "宅女",
        "pinyin": "zháinǚ",
        "translation": "woman who stays at home all the time/woman who stays at home all the time/otaku/nerd/geek/otaku girl"
    },
    {
        "characters": "网友",
        "pinyin": "wăngyŏu",
        "translation": "internet friend"
    },
    {
        "characters": "网络公民",
        "pinyin": "wăngluògōngmín",
        "translation": "netizen"
    },
    {
        "characters": "人肉搜索",
        "pinyin": "rénròusōusuŏ",
        "translation": "human flesh search engine/crowdsource/internet vigilante"
    },
    {
        "characters": "黑客",
        "pinyin": "hēikè",
        "translation": "hacker"
    },
    {
        "characters": "风险投资",
        "pinyin": "fēngxiăntóuzī",
        "translation": "venture capital"
    },
    {
        "characters": "用户",
        "pinyin": "yònghù",
        "translation": "user"
    },
    {
        "characters": "管理员",
        "pinyin": "guănlĭyuán",
        "translation": "administrator/admin"
    },
    {
        "characters": "版主",
        "pinyin": "bănzhŭ",
        "translation": "moderator/mod"
    },
    {
        "characters": "程序员",
        "pinyin": "chéngxùyuán",
        "translation": "programmer"
    },
    {
        "characters": "电脑编程",
        "pinyin": "diànnăobiānchéng",
        "translation": "programming/computer programming"
    },
    {
        "characters": "开发人员",
        "pinyin": "kāifārényuán",
        "translation": "developer"
    }
]