[
    {
        "characters": "元",
        "pinyin": "yuán",
        "translation": "Yuan"
    },
    {
        "characters": "块",
        "pinyin": "kuài",
        "translation": "measure word for money/classifier for money"
    },
    {
        "characters": "角",
        "pinyin": "jiăo",
        "translation": "ten cents/10 cents/0.1 yuan"
    },
    {
        "characters": "毛",
        "pinyin": "máo",
        "translation": "ten cents/10 cents/0.1 yuan"
    },
    {
        "characters": "分",
        "pinyin": "fēn",
        "translation": "one cent/1 cent/0.01 yuan"
    },
    {
        "characters": "人民币",
        "pinyin": "Rén mín bì",
        "translation": "Renminbi/Chinese currency/RMB"
    }
]